﻿name="Kaiserreich: Polskie Tłumaczenie"
archive="kpt.zip"
tags={
	"Translation"
	"Fixes"
	"Alternative History"
	"Map"
}
picture="kr_poland.jpg"
remote_file_id="1386559784"
supported_version="1.5.*"
